\relax 
\providecommand\hyper@newdestlabel[2]{}
\providecommand\HyperFirstAtBeginDocument{\AtBeginDocument}
\HyperFirstAtBeginDocument{\ifx\hyper@anchor\@undefined
\global\let\oldcontentsline\contentsline
\gdef\contentsline#1#2#3#4{\oldcontentsline{#1}{#2}{#3}}
\global\let\oldnewlabel\newlabel
\gdef\newlabel#1#2{\newlabelxx{#1}#2}
\gdef\newlabelxx#1#2#3#4#5#6{\oldnewlabel{#1}{{#2}{#3}}}
\AtEndDocument{\ifx\hyper@anchor\@undefined
\let\contentsline\oldcontentsline
\let\newlabel\oldnewlabel
\fi}
\fi}
\global\let\hyper@last\relax 
\gdef\HyperFirstAtBeginDocument#1{#1}
\providecommand\HyField@AuxAddToFields[1]{}
\providecommand\HyField@AuxAddToCoFields[2]{}
\citation{*}
\@writefile{toc}{\contentsline {chapter}{\numberline {1}Introduction}{1}{chapter.1}\protected@file@percent }
\@writefile{lof}{\addvspace {10\p@ }}
\@writefile{lot}{\addvspace {10\p@ }}
\citation{Ghaf17a}
\citation{Bhav13a}
\citation{Jin14a}
\@writefile{toc}{\contentsline {chapter}{\numberline {2}Related Work}{4}{chapter.2}\protected@file@percent }
\@writefile{lof}{\addvspace {10\p@ }}
\@writefile{lot}{\addvspace {10\p@ }}
\newlabel{ch:Related work}{{2}{4}{Related Work}{chapter.2}{}}
\citation{MutcXXa}
\citation{Chen15a}
\citation{Jin14a}
\citation{Hass15a}
\citation{Yang16a}
\citation{Choi16a}
\citation{YangXXa}
\citation{Hidh17a}
\citation{Davi17a}
\citation{Will17a}
\citation{Rizz18a}
\citation{Song18a}
\citation{Pegu18a}
\citation{Hu18a}
\citation{Bai18a}
\citation{Pour18a}
\citation{Jin14a}
\citation{Lau18a}
\citation{Weic16a}
\@writefile{toc}{\contentsline {chapter}{\numberline {3}Security Analysis}{9}{chapter.3}\protected@file@percent }
\@writefile{lof}{\addvspace {10\p@ }}
\@writefile{lot}{\addvspace {10\p@ }}
\newlabel{ch:Security analysis}{{3}{9}{Security Analysis}{chapter.3}{}}
\@writefile{toc}{\contentsline {section}{\numberline {3.1}Code Injection}{9}{section.3.1}\protected@file@percent }
\citation{Jin14a}
\citation{Jin14a}
\citation{MutcXXa}
\@writefile{toc}{\contentsline {subsection}{\numberline {3.1.1}Injection Sources}{10}{subsection.3.1.1}\protected@file@percent }
\citation{MutcXXa}
\citation{MutcXXa}
\citation{Jin14a}
\citation{Jin14a}
\citation{MutcXXa}
\citation{Hass15a}
\citation{Song18a}
\citation{Jin14a}
\citation{Chen15a}
\citation{Song18a}
\citation{Pegu18a}
\@writefile{toc}{\contentsline {subsection}{\numberline {3.1.2}Injection Sinks}{13}{subsection.3.1.2}\protected@file@percent }
\citation{Davi17a}
\citation{Song18a}
\citation{Hass15a}
\@writefile{toc}{\contentsline {subsection}{\numberline {3.1.3}Impacts of Code Injection}{14}{subsection.3.1.3}\protected@file@percent }
\newlabel{Local file inclusion}{{3.1.3}{14}{Access to Local Files}{section*.23}{}}
\citation{Hidh17a}
\citation{Song18a}
\citation{Hass15a}
\citation{YangXXa}
\citation{Song18a}
\citation{Jin14a}
\citation{Jin14a}
\citation{YangXXa}
\citation{Davi17a}
\citation{Hidh17a}
\newlabel{UI manipulation}{{3.1.3}{17}{Phishing}{section*.29}{}}
\@writefile{toc}{\contentsline {section}{\numberline {3.2}Attack Methods for Malicious Apps}{17}{section.3.2}\protected@file@percent }
\@writefile{toc}{\contentsline {subsection}{\numberline {3.2.1}Vetting Circumvention}{17}{subsection.3.2.1}\protected@file@percent }
\@writefile{toc}{\contentsline {subsection}{\numberline {3.2.2}Introspection and Manipulation of Third-Party Content}{17}{subsection.3.2.2}\protected@file@percent }
\citation{Davi17a}
\citation{Hidh17a}
\citation{Hidh17a}
\@writefile{toc}{\contentsline {subsection}{\numberline {3.2.3}User Impersonation}{18}{subsection.3.2.3}\protected@file@percent }
\@writefile{toc}{\contentsline {subsection}{\numberline {3.2.4}UI Confusion}{18}{subsection.3.2.4}\protected@file@percent }
\citation{MutcXXa}
\citation{MutcXXa}
\@writefile{toc}{\contentsline {section}{\numberline {3.3}Further Security Flaws}{19}{section.3.3}\protected@file@percent }
\@writefile{toc}{\contentsline {subsection}{\numberline {3.3.1}Exposing Privileged Web Operations via Intents}{19}{subsection.3.3.1}\protected@file@percent }
\@writefile{toc}{\contentsline {subsection}{\numberline {3.3.2}Leaking Sensitive Data Through URL Overriding}{19}{subsection.3.3.2}\protected@file@percent }
\@writefile{toc}{\contentsline {subsection}{\numberline {3.3.3}Framework Vulnerabilities}{19}{subsection.3.3.3}\protected@file@percent }
\@writefile{toc}{\contentsline {section}{\numberline {3.4}Case Study}{19}{section.3.4}\protected@file@percent }
\@writefile{toc}{\contentsline {subsection}{\numberline {3.4.1}Vulnerability}{20}{subsection.3.4.1}\protected@file@percent }
\@writefile{toc}{\contentsline {subsection}{\numberline {3.4.2}Impacts}{21}{subsection.3.4.2}\protected@file@percent }
\@writefile{toc}{\contentsline {chapter}{\numberline {4}Content Security Policy}{23}{chapter.4}\protected@file@percent }
\@writefile{lof}{\addvspace {10\p@ }}
\@writefile{lot}{\addvspace {10\p@ }}
\@writefile{toc}{\contentsline {section}{\numberline {4.1}How CSP Works}{23}{section.4.1}\protected@file@percent }
\@writefile{toc}{\contentsline {subsection}{\numberline {4.1.1}CSP Sources}{24}{subsection.4.1.1}\protected@file@percent }
\citation{MDNWebDocs}
\citation{W3CCSP3}
\@writefile{toc}{\contentsline {subsection}{\numberline {4.1.2}CSP Directives}{26}{subsection.4.1.2}\protected@file@percent }
\newlabel{subsec:CSP directives}{{4.1.2}{26}{CSP Directives}{subsection.4.1.2}{}}
\citation{TrustedTypes}
\citation{Will17a}
\@writefile{toc}{\contentsline {section}{\numberline {4.2}How CSP Mitigates Attacks}{27}{section.4.2}\protected@file@percent }
\@writefile{toc}{\contentsline {subsection}{\numberline {4.2.1}Preventing Code Injection}{27}{subsection.4.2.1}\protected@file@percent }
\newlabel{subsec:Preventing code injection}{{4.2.1}{27}{Preventing Code Injection}{subsection.4.2.1}{}}
\@writefile{toc}{\contentsline {subsection}{\numberline {4.2.2}Preventing the Loading of Arbitrary Data}{28}{subsection.4.2.2}\protected@file@percent }
\@writefile{toc}{\contentsline {subsection}{\numberline {4.2.3}Preventing the Exfiltration of Data}{28}{subsection.4.2.3}\protected@file@percent }
\@writefile{toc}{\contentsline {subsection}{\numberline {4.2.4}Preventing UI Manipulation}{29}{subsection.4.2.4}\protected@file@percent }
\@writefile{toc}{\contentsline {subsection}{\numberline {4.2.5}Preventing Insecure Connections}{29}{subsection.4.2.5}\protected@file@percent }
\citation{Will17a}
\citation{Weic16a}
\@writefile{toc}{\contentsline {chapter}{\numberline {5}Retrofitting Cordova Applications for CSP}{30}{chapter.5}\protected@file@percent }
\@writefile{lof}{\addvspace {10\p@ }}
\@writefile{lot}{\addvspace {10\p@ }}
\@writefile{toc}{\contentsline {section}{\numberline {5.1}Approach}{30}{section.5.1}\protected@file@percent }
\@writefile{lof}{\contentsline {figure}{\numberline {5.1}{\ignorespaces The workflow of our implementation}}{31}{figure.5.1}\protected@file@percent }
\newlabel{fig:CSPGenerator}{{5.1}{31}{The workflow of our implementation}{figure.5.1}{}}
\@writefile{toc}{\contentsline {subsection}{\numberline {5.1.1}Processing Related Javascript}{32}{subsection.5.1.1}\protected@file@percent }
\newlabel{variable assignments}{{5.1.1}{33}{Extracting Variable Assignments}{section*.40}{}}
\@writefile{toc}{\contentsline {subsection}{\numberline {5.1.2}Setting Constant CSP Directives}{37}{subsection.5.1.2}\protected@file@percent }
\@writefile{toc}{\contentsline {subsection}{\numberline {5.1.3}Extracting Sources from HTML}{37}{subsection.5.1.3}\protected@file@percent }
\@writefile{toc}{\contentsline {subsection}{\numberline {5.1.4}Extracting Sources from HTML and Related Javascript}{37}{subsection.5.1.4}\protected@file@percent }
\citation{MDNWebDocs}
\@writefile{toc}{\contentsline {subsection}{\numberline {5.1.5}Rewriting CSS and Extracting Sources Related to Stylings}{38}{subsection.5.1.5}\protected@file@percent }
\@writefile{toc}{\contentsline {subsection}{\numberline {5.1.6}Rewriting Scripts and Extracting Sources Related to Them}{39}{subsection.5.1.6}\protected@file@percent }
\@writefile{toc}{\contentsline {subsection}{\numberline {5.1.7}Writing the Generated CSP Definition to the File}{40}{subsection.5.1.7}\protected@file@percent }
\@writefile{toc}{\contentsline {section}{\numberline {5.2}Evaluation}{40}{section.5.2}\protected@file@percent }
\@writefile{toc}{\contentsline {subsection}{\numberline {5.2.1}Limiting Patterns Inherent to Content Security Policy}{40}{subsection.5.2.1}\protected@file@percent }
\@writefile{toc}{\contentsline {subsection}{\numberline {5.2.2}Limiting Patterns Inherent to Our Approach}{41}{subsection.5.2.2}\protected@file@percent }
\@writefile{toc}{\contentsline {subsection}{\numberline {5.2.3}Limiting Patterns Inherent to Specific Use Cases}{43}{subsection.5.2.3}\protected@file@percent }
\citation{MapboxCSP}
\@writefile{toc}{\contentsline {subsection}{\numberline {5.2.4}Further Discoveries}{45}{subsection.5.2.4}\protected@file@percent }
\newlabel{subsubsec:strict-dynamic workaround}{{5.2.4}{45}{Propagating Trust for External Scripts in Chrome Versions Below 59}{section*.54}{}}
\newlabel{RiotJS}{{5.2.4}{46}{Propagating Trust for External Scripts in Chrome Versions Below 59}{section*.54}{}}
\citation{W3CCSP3}
\@writefile{toc}{\contentsline {subsection}{\numberline {5.2.5}Preliminary Conclusion}{47}{subsection.5.2.5}\protected@file@percent }
\citation{Alli16a}
\@writefile{toc}{\contentsline {chapter}{\numberline {6}Empirical Analysis}{49}{chapter.6}\protected@file@percent }
\@writefile{lof}{\addvspace {10\p@ }}
\@writefile{lot}{\addvspace {10\p@ }}
\citation{Rich11a}
\@writefile{toc}{\contentsline {section}{\numberline {6.1}Occurrence of Impacted APIs}{50}{section.6.1}\protected@file@percent }
\@writefile{lot}{\contentsline {table}{\numberline {6.1}{\ignorespaces Apps containing CSP-relevant APIs}}{50}{table.6.1}\protected@file@percent }
\newlabel{table:1}{{6.1}{50}{Apps containing CSP-relevant APIs}{table.6.1}{}}
\@writefile{toc}{\contentsline {section}{\numberline {6.2}Constant vs. Non-Constant Parameters}{50}{section.6.2}\protected@file@percent }
\citation{Rich11a}
\@writefile{lot}{\contentsline {table}{\numberline {6.2}{\ignorespaces Number of CSP-relevant API calls}}{51}{table.6.2}\protected@file@percent }
\newlabel{table:2}{{6.2}{51}{Number of CSP-relevant API calls}{table.6.2}{}}
\@writefile{toc}{\contentsline {section}{\numberline {6.3}Limitations to Rewriting}{51}{section.6.3}\protected@file@percent }
\citation{Weic16a}
\citation{Will17a}
\@writefile{lot}{\contentsline {table}{\numberline {6.3}{\ignorespaces Number of CSP-relevant API calls, library files excluded}}{52}{table.6.3}\protected@file@percent }
\newlabel{table:3}{{6.3}{52}{Number of CSP-relevant API calls, library files excluded}{table.6.3}{}}
\@writefile{lot}{\contentsline {table}{\numberline {6.4}{\ignorespaces Percentage of CSP-relevant APIs coming from library files}}{52}{table.6.4}\protected@file@percent }
\newlabel{table:4}{{6.4}{52}{Percentage of CSP-relevant APIs coming from library files}{table.6.4}{}}
\@writefile{lot}{\contentsline {table}{\numberline {6.5}{\ignorespaces Apps requiring extra keywords because they could not be rewritten}}{53}{table.6.5}\protected@file@percent }
\newlabel{table:5}{{6.5}{53}{Apps requiring extra keywords because they could not be rewritten}{table.6.5}{}}
\@writefile{lot}{\contentsline {table}{\numberline {6.6}{\ignorespaces Apps successfully rewritten to avoid keywords}}{53}{table.6.6}\protected@file@percent }
\newlabel{table:6}{{6.6}{53}{Apps successfully rewritten to avoid keywords}{table.6.6}{}}
\@writefile{lot}{\contentsline {table}{\numberline {6.7}{\ignorespaces Apps successfully rewritten in relation to apps that need rewriting}}{53}{table.6.7}\protected@file@percent }
\newlabel{table:7}{{6.7}{53}{Apps successfully rewritten in relation to apps that need rewriting}{table.6.7}{}}
\@writefile{toc}{\contentsline {section}{\numberline {6.4}Framework Usage}{54}{section.6.4}\protected@file@percent }
\@writefile{lot}{\contentsline {table}{\numberline {6.8}{\ignorespaces Percentage of apps including third-party libraries}}{54}{table.6.8}\protected@file@percent }
\newlabel{table:7}{{6.8}{54}{Percentage of apps including third-party libraries}{table.6.8}{}}
\@writefile{lot}{\contentsline {table}{\numberline {6.9}{\ignorespaces Percentage of files including jQuery versions}}{54}{table.6.9}\protected@file@percent }
\newlabel{table:8}{{6.9}{54}{Percentage of files including jQuery versions}{table.6.9}{}}
\@writefile{toc}{\contentsline {section}{\numberline {6.5}Threats to Validity}{55}{section.6.5}\protected@file@percent }
\@writefile{toc}{\contentsline {chapter}{\numberline {7}Conclusion}{56}{chapter.7}\protected@file@percent }
\@writefile{lof}{\addvspace {10\p@ }}
\@writefile{lot}{\addvspace {10\p@ }}
\@writefile{toc}{\contentsline {chapter}{\numberline {A}Anleitung zu wissenschaftlichen Arbeiten}{59}{appendix.A}\protected@file@percent }
\@writefile{lof}{\addvspace {10\p@ }}
\@writefile{lot}{\addvspace {10\p@ }}
\citation{AndroidDevelopers}
\@writefile{toc}{\contentsline {section}{\numberline {A.1}The WebView API}{60}{section.A.1}\protected@file@percent }
\newlabel{appendix:WebView_API}{{A.1}{60}{The WebView API}{section.A.1}{}}
\@writefile{toc}{\contentsline {subsection}{\numberline {A.1.1}WebView Class}{60}{subsection.A.1.1}\protected@file@percent }
\citation{Song18a}
\citation{Song18a}
\citation{AndroidDevelopers}
\citation{AndroidDevelopers}
\@writefile{toc}{\contentsline {subsection}{\numberline {A.1.2}WebSettings Class}{62}{subsection.A.1.2}\protected@file@percent }
\citation{AndroidDevelopers}
\citation{AndroidDevelopers}
\@writefile{toc}{\contentsline {subsection}{\numberline {A.1.3}WebViewClient Class}{63}{subsection.A.1.3}\protected@file@percent }
\citation{AndroidDevelopers}
\@writefile{toc}{\contentsline {section}{\numberline {A.2}Risks Introduced by WebView}{64}{section.A.2}\protected@file@percent }
\@writefile{toc}{\contentsline {subsection}{\numberline {A.2.1}Code Injection}{64}{subsection.A.2.1}\protected@file@percent }
\citation{Jin14a}
\citation{Davi17a}
\@writefile{toc}{\contentsline {subsection}{\numberline {A.2.2}Lack of Fine-Grained SOP}{65}{subsection.A.2.2}\protected@file@percent }
\citation{Hu18a}
\citation{AndroidDevelopers}
\citation{Bai18a}
\@writefile{toc}{\contentsline {subsection}{\numberline {A.2.3}Bugs Introduced by WebViews}{66}{subsection.A.2.3}\protected@file@percent }
\@writefile{toc}{\contentsline {section}{\numberline {A.3}Best Practices and Mitigations}{66}{section.A.3}\protected@file@percent }
\@writefile{toc}{\contentsline {subsection}{\numberline {A.3.1}Use Secure Channels}{66}{subsection.A.3.1}\protected@file@percent }
\@writefile{toc}{\contentsline {subsection}{\numberline {A.3.2}Do not Display Untrusted Contents}{66}{subsection.A.3.2}\protected@file@percent }
\citation{AndroidDevelopers}
\@writefile{toc}{\contentsline {subsection}{\numberline {A.3.3}Sanitize Untrusted Inputs}{67}{subsection.A.3.3}\protected@file@percent }
\@writefile{toc}{\contentsline {subsection}{\numberline {A.3.4}Use Safe APIs to Display Untrusted Contents}{67}{subsection.A.3.4}\protected@file@percent }
\@writefile{toc}{\contentsline {subsection}{\numberline {A.3.5}Prevent Navigation}{67}{subsection.A.3.5}\protected@file@percent }
\@writefile{toc}{\contentsline {subsection}{\numberline {A.3.6}Prevent New Windows and Popups}{67}{subsection.A.3.6}\protected@file@percent }
\@writefile{toc}{\contentsline {subsection}{\numberline {A.3.7}Handle SSL Errors Safely}{67}{subsection.A.3.7}\protected@file@percent }
\@writefile{toc}{\contentsline {subsection}{\numberline {A.3.8}Use JS Bridges with Care}{67}{subsection.A.3.8}\protected@file@percent }
\citation{Yang16a}
\citation{Song18a}
\@writefile{toc}{\contentsline {subsection}{\numberline {A.3.9}Use Content Security Policy}{68}{subsection.A.3.9}\protected@file@percent }
\@writefile{toc}{\contentsline {subsection}{\numberline {A.3.10}Update Regularly}{68}{subsection.A.3.10}\protected@file@percent }
\citation{Will17a}
\citation{Davi17a}
\@writefile{toc}{\contentsline {subsection}{\numberline {A.3.11}Use Additional Security Measures}{69}{subsection.A.3.11}\protected@file@percent }
\@writefile{toc}{\contentsline {chapter}{\numberline {B}CSP Directives}{70}{appendix.B}\protected@file@percent }
\@writefile{lof}{\addvspace {10\p@ }}
\@writefile{lot}{\addvspace {10\p@ }}
\newlabel{chapter:CSP directives}{{B}{70}{CSP Directives}{appendix.B}{}}
\@writefile{toc}{\contentsline {section}{\numberline {B.1}connect-src}{70}{section.B.1}\protected@file@percent }
\@writefile{toc}{\contentsline {section}{\numberline {B.2}default-src}{71}{section.B.2}\protected@file@percent }
\@writefile{toc}{\contentsline {section}{\numberline {B.3}font-src}{71}{section.B.3}\protected@file@percent }
\@writefile{toc}{\contentsline {section}{\numberline {B.4}frame-src}{72}{section.B.4}\protected@file@percent }
\@writefile{toc}{\contentsline {section}{\numberline {B.5}img-src}{72}{section.B.5}\protected@file@percent }
\@writefile{toc}{\contentsline {section}{\numberline {B.6}manifest-src}{72}{section.B.6}\protected@file@percent }
\@writefile{toc}{\contentsline {section}{\numberline {B.7}media-src}{72}{section.B.7}\protected@file@percent }
\@writefile{toc}{\contentsline {section}{\numberline {B.8}object-src}{73}{section.B.8}\protected@file@percent }
\@writefile{toc}{\contentsline {section}{\numberline {B.9}script-src}{73}{section.B.9}\protected@file@percent }
\@writefile{toc}{\contentsline {section}{\numberline {B.10}style-src}{74}{section.B.10}\protected@file@percent }
\@writefile{toc}{\contentsline {section}{\numberline {B.11}worker-src}{74}{section.B.11}\protected@file@percent }
\bibdata{thesis}
\@writefile{toc}{\contentsline {section}{\numberline {B.12}base-uri}{75}{section.B.12}\protected@file@percent }
\@writefile{toc}{\contentsline {section}{\numberline {B.13}plugin-types}{75}{section.B.13}\protected@file@percent }
\@writefile{toc}{\contentsline {section}{\numberline {B.14}form-action}{75}{section.B.14}\protected@file@percent }
\@writefile{toc}{\contentsline {section}{\numberline {B.15}upgrade-insecure-requests}{75}{section.B.15}\protected@file@percent }
\bibcite{AndroidDevelopers}{{1}{}{{}}{{}}}
\bibcite{MapboxCSP}{{2}{}{{}}{{}}}
\bibcite{MDNWebDocs}{{3}{}{{}}{{}}}
\bibcite{Alli16a}{{4}{}{{}}{{}}}
\bibcite{Bai18a}{{5}{}{{}}{{}}}
\bibcite{Bhav13a}{{6}{}{{}}{{}}}
\bibcite{Chen15a}{{7}{}{{}}{{}}}
\bibcite{Choi16a}{{8}{}{{}}{{}}}
\bibcite{Davi17a}{{9}{}{{}}{{}}}
\bibcite{Ghaf17a}{{10}{}{{}}{{}}}
\bibcite{Hass15a}{{11}{}{{}}{{}}}
\bibcite{Hidh17a}{{12}{}{{}}{{}}}
\bibcite{Hu18a}{{13}{}{{}}{{}}}
\bibcite{Jin14a}{{14}{}{{}}{{}}}
\bibcite{TrustedTypes}{{15}{}{{}}{{}}}
\bibcite{Lau18a}{{16}{}{{}}{{}}}
\bibcite{MutcXXa}{{17}{}{{}}{{}}}
\bibcite{Pegu18a}{{18}{}{{}}{{}}}
\bibcite{Pour18a}{{19}{}{{}}{{}}}
\bibcite{Rich11a}{{20}{}{{}}{{}}}
\bibcite{Rizz18a}{{21}{}{{}}{{}}}
\bibcite{Song18a}{{22}{}{{}}{{}}}
\bibcite{Weic16a}{{23}{}{{}}{{}}}
\bibcite{Will17a}{{24}{}{{}}{{}}}
\bibcite{W3CCSP3}{{25}{}{{}}{{}}}
\bibcite{YangXXa}{{26}{}{{}}{{}}}
\bibcite{Yang16a}{{27}{}{{}}{{}}}
\bibstyle{plain}
\providecommand\NAT@force@numbers{}\NAT@force@numbers
